-173.5 , 817.5 , 54997.6 , 234.516 , 10
-152 , 814.25 , 40346.3 , 200.864 , 10
-179.75 , 805.5 , 41682.3 , 204.162 , 10
-167.5 , 807.5 , 42477.7 , 206.101 , 10
-160.5 , 815.25 , 43222.2 , 207.9 , 10
-181.75 , 827.5 , 52627.6 , 229.407 , 10
-163.5 , 823 , 51203.2 , 226.281 , 10
-147.75 , 825 , 47275.1 , 217.428 , 10
-163 , 820.25 , 48291.2 , 219.753 , 10
-194.5 , 822.25 , 48514.6 , 220.26 , 10
