-227.25 , 873.75 , 68166.9 , 261.088 , 6
-180.75 , 894.75 , 57132.8 , 239.025 , 6
-134 , 895.75 , 55807.1 , 236.235 , 6
-154.75 , 896.25 , 57572.5 , 239.943 , 6
-122 , 870.75 , 67022.1 , 258.886 , 6
-199.5 , 895 , 67728.5 , 260.247 , 6
-178 , 868 , 67122.2 , 259.08 , 6
-194.5 , 868.25 , 67146.9 , 259.127 , 6
-119 , 874 , 68005.4 , 260.779 , 6
-134.75 , 868 , 69172.7 , 263.007 , 6
