-284 , 1020 , 1
-360.75 , 1019.25 , 1
-217.25 , 1020 , 1
-271 , 1020 , 1
-247.5 , 1020 , 1
-249.75 , 1019.5 , 1
-263.25 , 974 , 1
-257.75 , 977.25 , 1
-231.75 , 1020 , 1
-353.5 , 970 , 1
-292.25 , 962.75 , 2
-272.25 , 1016.75 , 2
-163.75 , 950.25 , 2
-300.5 , 1020 , 2
-306.5 , 1017.75 , 2
-275.75 , 1012 , 2
-344.25 , 973 , 2
-275 , 1018.75 , 2
-231 , 1015 , 2
-231.25 , 1019 , 2
-232.25 , 1016 , 0
-404.5 , 1020 , 0
-370.75 , 952.25 , 0
-413 , 1015.75 , 0
-310.25 , 977.25 , 0
-257.75 , 1014 , 0
-348.5 , 992.75 , 0
-323.25 , 999 , 0
-245.5 , 985.5 , 0
-251.25 , 1020 , 0
